2019-04-15T03:41:53+00:00 CRITICAL Uncaught Error: Call to undefined method YITH_WCBR_Shortcode::brand_filter() in /opt/bitnami/apps/wordpress/htdocs/wp-content/plugins/yith-woocommerce-brands-add-on-premium/includes/class.yith-wcbr-shortcode-premium.php:3640
Stack trace:
#0 /opt/bitnami/apps/wordpress/htdocs/wp-includes/shortcodes.php(319): YITH_WCBR_Shortcode_Premium::brand_list(Array, '', 'yith_wcbr_brand...')
#1 [internal function]: do_shortcode_tag(Array)
#2 /opt/bitnami/apps/wordpress/htdocs/wp-includes/shortcodes.php(197): preg_replace_callback('/\\[(\\[?)(yith_w...', 'do_shortcode_ta...', '[yith_wcbr_bran...')
#3 /opt/bitnami/apps/wordpress/htdocs/wp-content/plugins/wordpress-seo-premium/admin/ajax/class-shortcode-filter.php(35): do_shortcode('[yith_wcbr_bran...')
#4 /opt/bitnami/apps/wordpress/htdocs/wp-includes/class-wp-hook.php(286): WPSEO_Shortcode_Filter->do_filter('')
#5 /opt/bitnami/apps/wordpress/htdocs/wp-includes/class-wp-hook.php(310): WP_Hook->apply_filters('', Array)
#6 /opt/bitnami/apps/wordpress/htdocs/wp-includes/plugin in /opt/bitnami/apps/wordpress/htdocs/wp-content/plugins/yith-woocommerce-brands-add-on-premium/includes/class.yith-wcbr-shortcode-premium.php on line 3640

