Images,SKU,Brand,Product Name,,Category,Meta: yith_cog_cost,dni,Regular price,Type,In stock?,Attribute 1 name,Attribute 1 value(s)
S1400I.jpg,S1400I,Jamaican Pride,ALLSPICE Garlic Seasoning 22 oz Bottle,12x22 oz/624 g,Grocery > Pantry > Spices & Seasonings,$5.83,$70.00,$9.99,simple,1,Item Number,S1400I
S1400G.jpg,S1400G,Jamaican Pride,ALLSPICE Garlic Seasoning 6 oz Bottle,12x6 oz/170 g,Grocery > Pantry > Spices & Seasonings,$2.45,$29.40,$4.99,simple,1,Item Number,S1400G
G3907N.jpg,G3907N,Jamaican Pride,BREAD Coco 4 pc Pack,1x16 oz/454 g,Grocery > Fresh > Fresh Breads,$2.20,$2.20,$4.99,simple,1,Item Number,G3907N
G3906F.jpg,G3906F,Jamaican Pride,BREAD Duck 56 oz,1x56 oz/1588 g,Grocery > Fresh > Fresh Breads,$6.00,$6.00,$8.99,simple,1,Item Number,G3906F
G3905D.jpg,G3905D,Jamaican Pride,BREAD Hard Dough White 40 oz,1 x 40 oz,Grocery > Fresh > Fresh Breads,$3.50,$3.50,$4.99,simple,1,Item Number,G3905D
G3905L.jpg,G3905L,Jamaican Pride,CAKE Easter Bun 24 oz,1 x 24 oz,Grocery > Fresh > Fresh Cakes,$3.85,$3.85,$4.99,simple,1,Item Number,G3905L
G3902M.jpg,G3902M,Jamaican Pride,CAKE Fruit Rum (Circle Pan) Plain,1x40 oz/2.5 lbs,Grocery > Fresh > Fresh Cakes,$17.25,$17.25,$24.99,simple,1,Item Number,G3902M
G3902L.jpg,G3902L,Jamaican Pride,CAKE Fruit Rum (Rectangular Pan) Plain,1x14 oz/397 g,Grocery > Fresh > Fresh Cakes,$3.75,$3.75,$7.99,simple,1,Item Number,G3902L
G3902D.jpg,G3902D,Jamaican Pride,CAKE Spice Bun Round,1x5 oz/142 g,Grocery > Fresh > Fresh Cakes,$1.10,$1.10,$4.99,simple,1,Item Number,G3902D
G3851L.jpg,G3851L,Jamaican Pride,CORN Meal Fine,10x4 lbs/1814 g,Grocery > Pantry > Grains & Pulses,$3.75,$37.50,$4.99,simple,1,Item Number,G3851L
S1181G.jpg,S1181G,Jamaican Pride,CURRY Powder Hot 22 oz Bottle,12x22 oz/624 g,Grocery > Pantry > Spices & Seasonings,$5.58,$67.00,$6.99,simple,1,Item Number,S1181G
S1181D.jpg,S1181D,Jamaican Pride,CURRY Powder Hot 5 lbs Jar,4x5 lbs/2.26 Kg,Grocery > Pantry > Spices & Seasonings,$25.00,$100.00,$32.99,simple,1,Item Number,S1181D
S1181F.jpg,S1181F,Jamaican Pride,CURRY Powder Hot 6 oz Bottle,12x6 oz/170 g,Grocery > Pantry > Spices & Seasonings,$2.45,$29.40,$4.99,simple,1,Item Number,S1181F
S1181H.jpg,S1181H,Jamaican Pride,CURRY Powder Mild 22 oz Bottle,12x22 oz/624 g,Grocery > Pantry > Spices & Seasonings,$5.58,$67.00,$9.99,simple,1,Item Number,S1181H
S1181C.jpg,S1181C,Jamaican Pride,CURRY Powder Mild 5 lbs Jar,4x5 lbs/2.26 Kg,Grocery > Pantry > Spices & Seasonings,$25.00,$100.00,$32.99,simple,1,Item Number,S1181C
S1181E.jpg,S1181E,Jamaican Pride,CURRY Powder Mild 6 oz Bottle,12x6 oz/170 g,Grocery > Pantry > Spices & Seasonings,$2.45,$29.40,$4.99,simple,1,Item Number,S1181E
G2576A.jpg,G2576A,Jamaican Pride,HERRING Spread Solomon Gundy,12x6 oz/170 g,"Grocery > Pantry > Jams, Grocery > Pantry > Jelly & Spreads",$3.75,$45.00,$5.99,simple,1,Item Number,G2576A
G2447C.jpg,G2447C,Jamaican Pride,OATS Quick,12x20 oz/567 g,Grocery > Pantry > Grains & Pulses,$2.50,$30.00,$3.99,simple,1,Item Number,G2447C
G2447E.jpg,G2447E,Jamaican Pride,OATS Quick,6x4 lbs/1814 g,Grocery > Pantry > Grains & Pulses,$3.75,$22.52,$5.99,simple,1,Item Number,G2447E
G3473G.jpg,G3473G,Jamaican Pride,PEAS Pigeon Dry in Tins 14 oz,12x14 oz/398 ml,Grocery > Pantry > Spices & Seasonings,$0.69,$8.28,$4.99,simple,1,Item Number,G3473G
G1839F.jpg,G1839F,Jamaican Pride,SEASONING Jerk Powder 22 oz Bottle,12x22 oz/624 g,Grocery > Pantry > Spices & Seasonings,$5.83,$70.00,$9.99,simple,1,Item Number,G1839F
G1839E.jpg,G1839E,Jamaican Pride,SEASONING Jerk Powder 6 oz Bottle,12x6 oz/170 g,Grocery > Pantry > Spices & Seasonings,$2.67,$32.00,$4.99,simple,1,Item Number,G1839E
S1854D.jpg,S1854D,Jamaican Pride,SEASONING Oxtail 22 oz Bottle,12x22 oz/624 g,Grocery > Pantry > Spices & Seasonings,$5.83,$70.00,$9.99,simple,1,Item Number,S1854D
S1854B.jpg,S1854B,Jamaican Pride,SEASONING Oxtail 6 oz Bottle,12x6 oz/170 g,Grocery > Pantry > Spices & Seasonings,$2.67,$32.00,$4.99,simple,1,Item Number,S1854B
B1003M.jpg,B1003M,Jamaican Pride,SODA BI Ginger Beer Drink + Dep,6 x 2 Lt.,Grocery > Beverages > Sodas,$1.58,$9.50,$2.99,simple,1,Item Number,B1003M
G4225F.jpg,G4225F,Jamaican Pride,TAMARIND Ball Candy,17x3 oz/85 g,Grocery > Snacks & Treats > Candy,$1.06,$18.00,$4.99,simple,1,Item Number,G4225F
G4225D.jpg,G4225D,Jamaican Pride,TAMARIND Ball Candy Spicy,17x3 oz/85 g,Grocery > Snacks & Treats > Candy,$1.06,$18.00,$4.99,simple,1,Item Number,G4225D